{
  "status": 200,
  "ms": 66,
  "data": {
    "wars": [
      {
        "id": "f9635c26-562a-4371-8796-62fbab7b17dd",
        "attacker_id": "a4b170ed-bb09-4535-b43e-8fad53e045a0",
        "defender_id": "e4e23132-72ce-44a7-b7a1-bf376d2e5bde",
        "declared_by": "f5e9facc-0c62-46ed-823b-dd5ce9be1eb6",
        "status": "ended",
        "starts_at": "2026-06-08T20:15:10.433Z",
        "ends_at": "2026-06-09T20:15:10.433Z",
        "attacker_power": "69696",
        "defender_power": "19172",
        "winner_id": null,
        "created_at": "2026-06-08T19:45:10.433Z",
        "war_goals": [
          "fetih"
        ],
        "war_name": "İSTANBUL-İZMİR ASKERİ TATBİKAT",
        "war_type": "standard",
        "attacker_province": "İstanbul",
        "defender_province": "İzmir",
        "is_conquest": true,
        "ended_by_ceasefire": true,
        "ceasefire_offered_by": null,
        "ceasefire_offered_to": null,
        "ceasefire_offered_at": null,
        "is_transferred": false,
        "attacker_name": "İstanbul Şehir Devleti",
        "defender_name": "İzmir Cumhuriyeti",
        "attacker_flag": "https://diplomacia.com.tr/uploads/country-flags/a4b170ed-bb09-4535-b43e-8fad53e045a0-1780790279720.png",
        "defender_flag": "https://diplomacia.com.tr/uploads/country-flags/e4e23132-72ce-44a7-b7a1-bf376d2e5bde-1780265880967.png",
        "winner_name": null,
        "winner_flag": null,
        "real_attacker_power": "69696",
        "real_defender_power": "19172"
      },
      {
        "id": "41a02978-a359-43da-a8ef-cc567be1b446",
        "attacker_id": "c0cea031-7de5-4b1b-825f-866057956c9a",
        "defender_id": "dbb3246e-7ad5-4161-869b-39ce840d7605",
        "declared_by": "f5922140-8ba4-4733-95e0-5fd405ffcb97",
        "status": "ended",
        "starts_at": "2026-06-08T14:32:44.933Z",
        "ends_at": "2026-06-09T14:32:44.933Z",
        "attacker_power": "1227174",
        "defender_power": "136725",
        "winner_id": null,
        "created_at": "2026-06-08T14:02:44.933Z",
        "war_goals": [
          "fetih"
        ],
        "war_name": "Rusya ile anlaşmalı olarak birleşme savaşıdır",
        "war_type": "standard",
        "attacker_province": "Altay",
        "defender_province": "St. Petersburg",
        "is_conquest": true,
        "ended_by_ceasefire": true,
        "ceasefire_offered_by": null,
        "ceasefire_offered_to": null,
        "ceasefire_offered_at": null,
        "is_transferred": false,
        "attacker_name": "TÜRKELİ",
        "defender_name": "Batı Rus Cumhuriyeti",
        "attacker_flag": "https://diplomacia.com.tr/uploads/country-flags/c0cea031-7de5-4b1b-825f-866057956c9a-1780440318697.jpeg",
        "defender_flag": "https://diplomacia.com.tr/uploads/country-flags/dbb3246e-7ad5-4161-869b-39ce840d7605-1780350686149.jpeg",
        "winner_name": null,
        "winner_flag": null,
        "real_attacker_power": "1238465",
        "real_defender_power": "136725"
      },
      {
        "id": "de0234f7-a832-49d1-b738-6cd7ec7ea11e",
        "attacker_id": "6018c0c2-7c4d-4acd-a086-1b6a2c178361",
        "defender_id": "a4b170ed-bb09-4535-b43e-8fad53e045a0",
        "declared_by": "ce0c287e-be5b-499e-9543-3a56b780a977",
        "status": "ended",
        "starts_at": "2026-06-08T09:11:22.912Z",
        "ends_at": "2026-06-09T09:11:22.912Z",
        "attacker_power": "332746",
        "defender_power": "967273",
        "winner_id": null,
        "created_at": "2026-06-08T08:41:22.912Z",
        "war_goals": [
          "fetih"
        ],
        "war_name": null,
        "war_type": "standard",
        "attacker_province": "Ankara",
        "defender_province": "İstanbul",
        "is_conquest": true,
        "ended_by_ceasefire": true,
        "ceasefire_offered_by": null,
        "ceasefire_offered_to": null,
        "ceasefire_offered_at": null,
        "is_transferred": false,
        "attacker_name": "Türkiye Cumhuriyeti",
        "defender_name": "İstanbul Şehir Devleti",
        "attacker_flag": "https://diplomacia.com.tr/uploads/country-flags/6018c0c2-7c4d-4acd-a086-1b6a2c178361-1780971908111.png",
        "defender_flag": "https://diplomacia.com.tr/uploads/country-flags/a4b170ed-bb09-4535-b43e-8fad53e045a0-1780790279720.png",
        "winner_name": null,
        "winner_flag": null,
        "real_attacker_power": "332746",
        "real_defender_power": "1000272"
      },
      {
        "id": "4d6d5c91-ce3e-4273-ba2f-3cb3fdb51bc4",
        "attacker_id": "6018c0c2-7c4d-4acd-a086-1b6a2c178361",
        "defender_id": "fd3be682-a2f9-4086-9121-1dfd198cddfc",
        "declared_by": "b69c8981-b78e-475f-8fc1-4d72f7dbcb26",
        "status": "ended",
        "starts_at": "2026-06-08T01:15:17.197Z",
        "ends_at": "2026-06-09T01:15:17.197Z",
        "attacker_power": "3306967",
        "defender_power": "2243106",
        "winner_id": null,
        "created_at": "2026-06-08T00:45:17.197Z",
        "war_goals": [
          "fetih"
        ],
        "war_name": "yeter bu kadar",
        "war_type": "standard",
        "attacker_province": "Ankara",
        "defender_province": "Samsun",
        "is_conquest": true,
        "ended_by_ceasefire": true,
        "ceasefire_offered_by": null,
        "ceasefire_offered_to": null,
        "ceasefire_offered_at": null,
        "is_transferred": false,
        "attacker_name": "Türkiye Cumhuriyeti",
        "defender_name": "AYKA-ELTURKO",
        "attacker_flag": "https://diplomacia.com.tr/uploads/country-flags/6018c0c2-7c4d-4acd-a086-1b6a2c178361-1780971908111.png",
        "defender_flag": "https://diplomacia.com.tr/uploads/country-flags/fd3be682-a2f9-4086-9121-1dfd198cddfc-1780335335325.png",
        "winner_name": null,
        "winner_flag": null,
        "real_attacker_power": "3328781",
        "real_defender_power": "2260337"
      },
      {
        "id": "8f350abb-0bfb-4319-81ed-14aebb5fb02e",
        "attacker_id": "fd3be682-a2f9-4086-9121-1dfd198cddfc",
        "defender_id": "a4b170ed-bb09-4535-b43e-8fad53e045a0",
        "declared_by": "6dc0b507-5c89-4190-9ab3-e6a60d31358a",
        "status": "ended",
        "starts_at": "2026-06-07T22:13:11.556Z",
        "ends_at": "2026-06-08T22:13:11.556Z",
        "attacker_power": "1640192",
        "defender_power": "1812158",
        "winner_id": null,
        "created_at": "2026-06-07T21:43:11.556Z",
        "war_goals": [
          "fetih"
        ],
        "war_name": null,
        "war_type": "standard",
        "attacker_province": "Samsun",
        "defender_province": "İstanbul",
        "is_conquest": true,
        "ended_by_ceasefire": true,
        "ceasefire_offered_by": null,
        "ceasefire_offered_to": null,
        "ceasefire_offered_at": null,
        "is_transferred": false,
        "attacker_name": "AYKA-ELTURKO",
        "defender_name": "İstanbul Şehir Devleti",
        "attacker_flag": "https://diplomacia.com.tr/uploads/country-flags/fd3be682-a2f9-4086-9121-1dfd198cddfc-1780335335325.png",
        "defender_flag": "https://diplomacia.com.tr/uploads/country-flags/a4b170ed-bb09-4535-b43e-8fad53e045a0-1780790279720.png",
        "winner_name": null,
        "winner_flag": null,
        "real_attacker_power": "1656879",
        "real_defender_power": "1836523"
      }
    ],
    "total": 95,
    "page": 1,
    "limit": 5,
    "hasMore": true
  },
  "error": null
}