{
  "status": 200,
  "ms": 72,
  "data": {
    "players": [
      {
        "id": "6a3043a9-4408-4a65-b2e4-b474bd5f94a0",
        "username": "UhtreD",
        "xp": 606010,
        "reputation": 1086,
        "avatar_url": "https://diplomacia.com.tr/uploads/avatars/6a3043a9-4408-4a65-b2e4-b474bd5f94a0.jpeg?v=1780798400567",
        "country_name": "Ceriteli",
        "country_flag": "https://diplomacia.com.tr/uploads/country-flags/6fad2684-8303-4e4a-8927-7d3b6f292dce-1780325182173.png",
        "display_name": "[YORUK] UhtreD",
        "rank": 1,
        "level": 66,
        "levelTitle": "levelTitles.general",
        "levelIcon": "⭐"
      },
      {
        "id": "ffaba2ad-7a54-46e9-baaf-3334aaf653b7",
        "username": "THE GAWEX",
        "xp": 585511,
        "reputation": 224,
        "avatar_url": "https://diplomacia.com.tr/uploads/avatars/ffaba2ad-7a54-46e9-baaf-3334aaf653b7.jpeg?v=1780866314173",
        "country_name": "Ceriteli",
        "country_flag": "https://diplomacia.com.tr/uploads/country-flags/6fad2684-8303-4e4a-8927-7d3b6f292dce-1780325182173.png",
        "display_name": "[YORUK] THE GAWEX",
        "rank": 2,
        "level": 65,
        "levelTitle": "levelTitles.general",
        "levelIcon": "⭐"
      },
      {
        "id": "9180a655-fb56-45be-a458-0ad84694e0da",
        "username": "BURAK AYDIN",
        "xp": 559908,
        "reputation": 79,
        "avatar_url": "https://diplomacia.com.tr/uploads/avatars/9180a655-fb56-45be-a458-0ad84694e0da.jpeg?v=1780446813759",
        "country_name": null,
        "country_flag": null,
        "display_name": "[TSK] BURAK AYDIN",
        "rank": 3,
        "level": 65,
        "levelTitle": "levelTitles.general",
        "levelIcon": "⭐"
      },
      {
        "id": "a0386e11-85e0-411d-9385-2fdd89bdb492",
        "username": "Emirhan Ekşioğlu",
        "xp": 553683,
        "reputation": 143,
        "avatar_url": "https://diplomacia.com.tr/uploads/avatars/a0386e11-85e0-411d-9385-2fdd89bdb492.jpeg?v=1780595940387",
        "country_name": "AYKA-ELTURKO",
        "country_flag": "https://diplomacia.com.tr/uploads/country-flags/fd3be682-a2f9-4086-9121-1dfd198cddfc-1780335335325.png",
        "display_name": "[TURKO] Emirhan Ekşioğlu",
        "rank": 4,
        "level": 65,
        "levelTitle": "levelTitles.general",
        "levelIcon": "⭐"
      },
      {
        "id": "e843032e-8453-442d-accc-7a254cea9d34",
        "username": "Adolf Pesimist",
        "xp": 509885,
        "reputation": 87,
        "avatar_url": "https://diplomacia.com.tr/uploads/avatars/e843032e-8453-442d-accc-7a254cea9d34.jpeg?v=1780944385289",
        "country_name": null,
        "country_flag": null,
        "display_name": "Adolf Pesimist",
        "rank": 5,
        "level": 64,
        "levelTitle": "levelTitles.general",
        "levelIcon": "⭐"
      },
      {
        "id": "6dc0b507-5c89-4190-9ab3-e6a60d31358a",
        "username": "Mikey",
        "xp": 502528,
        "reputation": 212,
        "avatar_url": "https://diplomacia.com.tr/uploads/avatars/6dc0b507-5c89-4190-9ab3-e6a60d31358a.jpeg?v=1780510663950",
        "country_name": "AYKA-ELTURKO",
        "country_flag": "https://diplomacia.com.tr/uploads/country-flags/fd3be682-a2f9-4086-9121-1dfd198cddfc-1780335335325.png",
        "display_name": "[AYKA] Mikey",
        "rank": 6,
        "level": 64,
        "levelTitle": "levelTitles.general",
        "levelIcon": "⭐"
      },
      {
        "id": "b69c8981-b78e-475f-8fc1-4d72f7dbcb26",
        "username": "MUSTAFA KEMAL ATATÜRK",
        "xp": 426959,
        "reputation": 1520,
        "avatar_url": "https://diplomacia.com.tr/uploads/avatars/b69c8981-b78e-475f-8fc1-4d72f7dbcb26.jpeg?v=1780444229864",
        "country_name": "Türkiye Cumhuriyeti",
        "country_flag": "https://diplomacia.com.tr/uploads/country-flags/6018c0c2-7c4d-4acd-a086-1b6a2c178361-1780971908111.png",
        "display_name": "[TSK] MUSTAFA KEMAL ATATÜRK",
        "rank": 7,
        "level": 62,
        "levelTitle": "levelTitles.general",
        "levelIcon": "⭐"
      },
      {
        "id": "f942b2b0-0235-49e4-9e58-881468999b59",
        "username": "Rudolf Höss",
        "xp": 411873,
        "reputation": -93,
        "avatar_url": "https://diplomacia.com.tr/uploads/avatars/f942b2b0-0235-49e4-9e58-881468999b59.webp?v=1780944718305",
        "country_name": "AYKA-ELTURKO",
        "country_flag": "https://diplomacia.com.tr/uploads/country-flags/fd3be682-a2f9-4086-9121-1dfd198cddfc-1780335335325.png",
        "display_name": "Rudolf Höss",
        "rank": 8,
        "level": 61,
        "levelTitle": "levelTitles.general",
        "levelIcon": "⭐"
      },
      {
        "id": "afab62fb-717c-4942-a53b-891de5e4bd3e",
        "username": "M E R T",
        "xp": 404059,
        "reputation": 206,
        "avatar_url": "https://diplomacia.com.tr/uploads/avatars/afab62fb-717c-4942-a53b-891de5e4bd3e.jpeg?v=1780924429807",
        "country_name": "Türkiye Cumhuriyeti",
        "country_flag": "https://diplomacia.com.tr/uploads/country-flags/6018c0c2-7c4d-4acd-a086-1b6a2c178361-1780971908111.png",
        "display_name": "M E R T",
        "rank": 9,
        "level": 61,
        "levelTitle": "levelTitles.general",
        "levelIcon": "⭐"
      },
      {
        "id": "845a67bb-2907-447e-a6e2-ec504e704a93",
        "username": "Ernst STRASSER",
        "xp": 373271,
        "reputation": 351,
        "avatar_url": "https://diplomacia.com.tr/uploads/avatars/845a67bb-2907-447e-a6e2-ec504e704a93.jpeg?v=1780837967602",
        "country_name": "VIERTES REICH",
        "country_flag": "https://diplomacia.com.tr/uploads/country-flags/12585535-a54c-482e-8bae-af53662bece5-1780658110308.png",
        "display_name": "[REICH] Ernst STRASSER",
        "rank": 10,
        "level": 60,
        "levelTitle": "levelTitles.general",
        "levelIcon": "⭐"
      }
    ],
    "total": 4977,
    "page": 1,
    "pages": 498
  },
  "error": null
}