{
  "status": 200,
  "ms": 6334,
  "data": {
    "players": [
      {
        "id": "94caafca-3463-418e-bbd0-8f8ed98674d6",
        "username": "Zondium",
        "xp": 34898,
        "reputation": 2931,
        "avatar_url": "https://diplomacia.com.tr/uploads/avatars/94caafca-3463-418e-bbd0-8f8ed98674d6.jpeg?v=1780332200307",
        "country_name": null,
        "country_flag": null,
        "article_count": 42,
        "display_name": "Zondium",
        "rank": 1,
        "level": 32,
        "levelTitle": "levelTitles.yarbay",
        "levelIcon": "🛡️"
      },
      {
        "id": "cd9064b5-b57b-4031-9645-0df49f53363a",
        "username": "Targan Han",
        "xp": 15732,
        "reputation": 2692,
        "avatar_url": "https://lh3.googleusercontent.com/a/ACg8ocJT-yFZGtsfvwjBRPgJL-jfkfnR7iGuSj2Xqal7asBr5nCgjOs=s96-c",
        "country_name": "TÜRKELİ",
        "country_flag": "https://diplomacia.com.tr/uploads/country-flags/c0cea031-7de5-4b1b-825f-866057956c9a-1780440318697.jpeg",
        "article_count": 9,
        "display_name": "Targan Han",
        "rank": 2,
        "level": 23,
        "levelTitle": "levelTitles.binbaşi",
        "levelIcon": "⚔️"
      },
      {
        "id": "0b54f7d3-99f9-4daa-a91b-98e679033360",
        "username": "Aliya İzzetbegoviç",
        "xp": 160458,
        "reputation": 2560,
        "avatar_url": "https://diplomacia.com.tr/uploads/avatars/0b54f7d3-99f9-4daa-a91b-98e679033360.jpeg?v=1780834693037",
        "country_name": null,
        "country_flag": null,
        "article_count": 59,
        "display_name": "[BIP] Aliya İzzetbegoviç",
        "rank": 3,
        "level": 50,
        "levelTitle": "levelTitles.albay",
        "levelIcon": "🔰"
      },
      {
        "id": "89983cde-7ec5-4035-82bf-1c19a9b36bb8",
        "username": "Harvey Specter",
        "xp": 127831,
        "reputation": 2192,
        "avatar_url": "https://diplomacia.com.tr/uploads/avatars/89983cde-7ec5-4035-82bf-1c19a9b36bb8.jpeg?v=1780929334931",
        "country_name": null,
        "country_flag": null,
        "article_count": 34,
        "display_name": "[TSK] Harvey Specter",
        "rank": 4,
        "level": 47,
        "levelTitle": "levelTitles.albay",
        "levelIcon": "🔰"
      },
      {
        "id": "0e0816df-2ac0-4896-a6fc-58632ad1907e",
        "username": "EMİR BERKAY KUMCU",
        "xp": 99293,
        "reputation": 1833,
        "avatar_url": "https://diplomacia.com.tr/uploads/avatars/0e0816df-2ac0-4896-a6fc-58632ad1907e.jpeg?v=1780341155366",
        "country_name": "İstanbul Şehir Devleti",
        "country_flag": "https://diplomacia.com.tr/uploads/country-flags/a4b170ed-bb09-4535-b43e-8fad53e045a0-1780790279720.png",
        "article_count": 41,
        "display_name": "[IBRP] EMİR BERKAY KUMCU",
        "rank": 5,
        "level": 44,
        "levelTitle": "levelTitles.albay",
        "levelIcon": "🔰"
      },
      {
        "id": "46c9b46f-1cd3-4601-8ef0-c1d78eb501cf",
        "username": "Muhsin Yazıcıoğlu",
        "xp": 36740,
        "reputation": 1772,
        "avatar_url": "https://diplomacia.com.tr/uploads/avatars/46c9b46f-1cd3-4601-8ef0-c1d78eb501cf.jpeg?v=1780568536796",
        "country_name": "TÜRKELİ",
        "country_flag": "https://diplomacia.com.tr/uploads/country-flags/c0cea031-7de5-4b1b-825f-866057956c9a-1780440318697.jpeg",
        "article_count": 59,
        "display_name": "[TMP] Muhsin Yazıcıoğlu",
        "rank": 6,
        "level": 32,
        "levelTitle": "levelTitles.yarbay",
        "levelIcon": "🛡️"
      },
      {
        "id": "afd4d21f-95f9-48aa-b477-f05179b06d90",
        "username": "Mehmet KARAHANLI",
        "xp": 294152,
        "reputation": 1763,
        "avatar_url": "https://diplomacia.com.tr/uploads/avatars/afd4d21f-95f9-48aa-b477-f05179b06d90.jpeg",
        "country_name": "Kurtlar Konseyi",
        "country_flag": "https://diplomacia.com.tr/uploads/country-flags/97404ff6-cb29-4a19-87ef-3d84dd9ae45e-1780264950436.jpeg",
        "article_count": 16,
        "display_name": "Mehmet KARAHANLI",
        "rank": 7,
        "level": 57,
        "levelTitle": "levelTitles.general",
        "levelIcon": "⭐"
      },
      {
        "id": "f5e9facc-0c62-46ed-823b-dd5ce9be1eb6",
        "username": "Aethel Finley",
        "xp": 107277,
        "reputation": 1576,
        "avatar_url": "https://diplomacia.com.tr/uploads/avatars/f5e9facc-0c62-46ed-823b-dd5ce9be1eb6.jpeg?v=1780504444262",
        "country_name": "İstanbul Şehir Devleti",
        "country_flag": "https://diplomacia.com.tr/uploads/country-flags/a4b170ed-bb09-4535-b43e-8fad53e045a0-1780790279720.png",
        "article_count": 13,
        "display_name": "[IBRP] Aethel Finley",
        "rank": 8,
        "level": 45,
        "levelTitle": "levelTitles.albay",
        "levelIcon": "🔰"
      },
      {
        "id": "bcb3f48f-d462-4953-bfda-4be1f497f88f",
        "username": "Bram Grozny",
        "xp": 248306,
        "reputation": 1548,
        "avatar_url": "https://diplomacia.com.tr/uploads/avatars/bcb3f48f-d462-4953-bfda-4be1f497f88f.jpeg?v=1780841716083",
        "country_name": null,
        "country_flag": null,
        "article_count": 36,
        "display_name": "[BIP] Bram Grozny",
        "rank": 9,
        "level": 55,
        "levelTitle": "levelTitles.general",
        "levelIcon": "⭐"
      },
      {
        "id": "b69c8981-b78e-475f-8fc1-4d72f7dbcb26",
        "username": "MUSTAFA KEMAL ATATÜRK",
        "xp": 426959,
        "reputation": 1520,
        "avatar_url": "https://diplomacia.com.tr/uploads/avatars/b69c8981-b78e-475f-8fc1-4d72f7dbcb26.jpeg?v=1780444229864",
        "country_name": "Türkiye Cumhuriyeti",
        "country_flag": "https://diplomacia.com.tr/uploads/country-flags/6018c0c2-7c4d-4acd-a086-1b6a2c178361-1780971908111.png",
        "article_count": 28,
        "display_name": "[TSK] MUSTAFA KEMAL ATATÜRK",
        "rank": 10,
        "level": 62,
        "levelTitle": "levelTitles.general",
        "levelIcon": "⭐"
      }
    ],
    "total": 4977,
    "page": 1,
    "pages": 498
  },
  "error": null
}