{
  "status": 200,
  "ms": 85,
  "data": {
    "factories": [
      {
        "id": "bb8fad17-f2fb-4db4-88a4-87cb834f1df4",
        "player_id": "b9aa3fd5-ead2-458b-bb1e-f051c7c458b6",
        "country_id": null,
        "type": "elmas",
        "level": 81,
        "created_at": "2026-05-31T10:21:22.089Z",
        "xp": 876500,
        "budget": "84177",
        "name": "Schutzstaffell Diamond Factory",
        "is_system": false,
        "province_name": "Bükreş",
        "salary_rate": 87,
        "budget_resources": {},
        "image_url": "https://diplomacia.com.tr/uploads/factory-images/bb8fad17-f2fb-4db4-88a4-87cb834f1df4.jpeg?v=1780844670211",
        "owner_name": "Batu Hanzade ᴇʟ ꜱᴀʀᴇᴛᴛᴏ",
        "owner_avatar": "https://diplomacia.com.tr/uploads/avatars/b9aa3fd5-ead2-458b-bb1e-f051c7c458b6.jpeg?v=1780218466776",
        "worker_count": "22"
      },
      {
        "id": "ea9f4860-70fc-45ad-bcf8-1214207462ad",
        "player_id": "afab62fb-717c-4942-a53b-891de5e4bd3e",
        "country_id": null,
        "type": "altin",
        "level": 62,
        "created_at": "2026-06-01T19:19:49.094Z",
        "xp": 86642,
        "budget": "0",
        "name": "Ocak Söndüren Altın madeni",
        "is_system": false,
        "province_name": "Bükreş",
        "salary_rate": 1,
        "budget_resources": {
          "altin": 9969
        },
        "image_url": "https://diplomacia.com.tr/uploads/factory-images/ea9f4860-70fc-45ad-bcf8-1214207462ad.jpeg?v=1780924947811",
        "owner_name": "M E R T",
        "owner_avatar": "https://diplomacia.com.tr/uploads/avatars/afab62fb-717c-4942-a53b-891de5e4bd3e.jpeg?v=1780924429807",
        "worker_count": "2"
      },
      {
        "id": "83a0be1c-844e-4e41-aefd-79b3366ac821",
        "player_id": null,
        "country_id": null,
        "type": "elmas",
        "level": 25,
        "created_at": "2026-06-07T13:25:38.978Z",
        "xp": 500,
        "budget": "0",
        "name": "Bükreş Devlet Fabrikasi",
        "is_system": true,
        "province_name": "Bükreş",
        "salary_rate": 100,
        "budget_resources": {},
        "image_url": "https://diplomacia.com.tr/coats/bukres.png",
        "owner_name": "SİSTEM",
        "owner_avatar": null,
        "worker_count": "4"
      },
      {
        "id": "e8c6cced-ae9c-47d9-ba59-b13fde7b3bcb",
        "player_id": "a44abfca-23fc-4be8-9840-932c34bceea7",
        "country_id": null,
        "type": "elmas",
        "level": 4,
        "created_at": "2026-06-09T00:58:45.275Z",
        "xp": 1900,
        "budget": "0",
        "name": "ZAZABEY ELMAS FABRİKASI",
        "is_system": false,
        "province_name": "Bükreş",
        "salary_rate": 100,
        "budget_resources": {},
        "image_url": "https://diplomacia.com.tr/uploads/factory-images/e8c6cced-ae9c-47d9-ba59-b13fde7b3bcb.jpeg?v=1780996451965",
        "owner_name": "ZAZA BEY",
        "owner_avatar": "https://diplomacia.com.tr/uploads/avatars/a44abfca-23fc-4be8-9840-932c34bceea7.jpeg?v=1781004012639",
        "worker_count": "1"
      },
      {
        "id": "7f7501dd-7302-4d94-84a3-8eee2bb68ce7",
        "player_id": "1b7aefaa-c9f2-4cbd-8fb5-8fc428d9f876",
        "country_id": null,
        "type": "elmas",
        "level": 2,
        "created_at": "2026-06-08T21:17:23.594Z",
        "xp": 800,
        "budget": "716",
        "name": "Elmas Fabrikası",
        "is_system": false,
        "province_name": "Bükreş",
        "salary_rate": 99,
        "budget_resources": {},
        "image_url": "https://diplomacia.com.tr/uploads/factory-defaults/elmas.jpg",
        "owner_name": "Y A Ğ I Z",
        "owner_avatar": "https://diplomacia.com.tr/uploads/avatars/1b7aefaa-c9f2-4cbd-8fb5-8fc428d9f876.jpeg?v=1780953514835",
        "worker_count": "0"
      }
    ],
    "total": 27,
    "page": 1,
    "pages": 6,
    "province_name": "Bükreş"
  },
  "error": null
}