{
  "status": 200,
  "ms": 77,
  "data": {
    "factories": [
      {
        "id": "13605cdc-c423-4861-b1d5-0831a402087c",
        "player_id": "afd4d21f-95f9-48aa-b477-f05179b06d90",
        "country_id": null,
        "type": "elmas",
        "level": 95,
        "created_at": "2026-05-30T14:25:49.537Z",
        "xp": 2095400,
        "budget": "2258097",
        "name": "Konsey Elmas Fabrikası",
        "is_system": false,
        "province_name": "Kaliforniya",
        "salary_rate": 1,
        "budget_resources": {},
        "image_url": "https://diplomacia.com.tr/uploads/factory-images/13605cdc-c423-4861-b1d5-0831a402087c.jpeg?v=1780318018575",
        "owner_name": "Mehmet KARAHANLI",
        "owner_avatar": "https://diplomacia.com.tr/uploads/avatars/afd4d21f-95f9-48aa-b477-f05179b06d90.jpeg",
        "country_name": "Kurtlar Konseyi",
        "country_flag": "https://diplomacia.com.tr/uploads/country-flags/97404ff6-cb29-4a19-87ef-3d84dd9ae45e-1780264950436.jpeg",
        "worker_count": "21"
      },
      {
        "id": "5abaf803-9a74-4659-93fb-129870f76054",
        "player_id": "cf932305-6230-4b03-af0f-027f582a855a",
        "country_id": null,
        "type": "elmas",
        "level": 91,
        "created_at": "2026-05-30T15:17:17.411Z",
        "xp": 1642274,
        "budget": "589983",
        "name": "İBRP İstanbul Elmas Fabrikası",
        "is_system": false,
        "province_name": "İstanbul",
        "salary_rate": 90,
        "budget_resources": {},
        "image_url": "https://diplomacia.com.tr/uploads/factory-images/5abaf803-9a74-4659-93fb-129870f76054.jpeg",
        "owner_name": "Obeydalek",
        "owner_avatar": "https://diplomacia.com.tr/uploads/avatars/cf932305-6230-4b03-af0f-027f582a855a.jpeg",
        "country_name": "İstanbul Şehir Devleti",
        "country_flag": "https://diplomacia.com.tr/uploads/country-flags/a4b170ed-bb09-4535-b43e-8fad53e045a0-1780790279720.png",
        "worker_count": "48"
      },
      {
        "id": "7d19234d-8931-4d60-8965-1b78d306f4c5",
        "player_id": "5f0f5431-c3fc-431a-8b42-c3b6062f3d3a",
        "country_id": null,
        "type": "elmas",
        "level": 82,
        "created_at": "2026-05-30T18:49:33.214Z",
        "xp": 975400,
        "budget": "518938",
        "name": "Samsun Ayka Elmas Fabrikası",
        "is_system": false,
        "province_name": "Samsun",
        "salary_rate": 90,
        "budget_resources": {},
        "image_url": "https://diplomacia.com.tr/uploads/factory-defaults/elmas.jpg",
        "owner_name": "Saruman",
        "owner_avatar": "https://lh3.googleusercontent.com/a/ACg8ocKZpu9qTQ5PXD0pkrxTT9OJwzUSoh_rNa5E0sxcKBUcTjD-XPpK=s96-c",
        "country_name": "AYKA-ELTURKO",
        "country_flag": "https://diplomacia.com.tr/uploads/country-flags/fd3be682-a2f9-4086-9121-1dfd198cddfc-1780335335325.png",
        "worker_count": "41"
      },
      {
        "id": "bb8fad17-f2fb-4db4-88a4-87cb834f1df4",
        "player_id": "b9aa3fd5-ead2-458b-bb1e-f051c7c458b6",
        "country_id": null,
        "type": "elmas",
        "level": 81,
        "created_at": "2026-05-31T10:21:22.089Z",
        "xp": 876500,
        "budget": "84177",
        "name": "Schutzstaffell Diamond Factory",
        "is_system": false,
        "province_name": "Bükreş",
        "salary_rate": 87,
        "budget_resources": {},
        "image_url": "https://diplomacia.com.tr/uploads/factory-images/bb8fad17-f2fb-4db4-88a4-87cb834f1df4.jpeg?v=1780844670211",
        "owner_name": "Batu Hanzade ᴇʟ ꜱᴀʀᴇᴛᴛᴏ",
        "owner_avatar": "https://diplomacia.com.tr/uploads/avatars/b9aa3fd5-ead2-458b-bb1e-f051c7c458b6.jpeg?v=1780218466776",
        "country_name": null,
        "country_flag": null,
        "worker_count": "22"
      },
      {
        "id": "d5c1203d-9805-44c9-b6cd-a5891fbc4659",
        "player_id": "b69c8981-b78e-475f-8fc1-4d72f7dbcb26",
        "country_id": null,
        "type": "elmas",
        "level": 78,
        "created_at": "2026-05-30T19:35:32.129Z",
        "xp": 733600,
        "budget": "835758",
        "name": "KARARGAH ELMAS",
        "is_system": false,
        "province_name": "Ankara",
        "salary_rate": 89,
        "budget_resources": {},
        "image_url": "https://diplomacia.com.tr/uploads/factory-images/d5c1203d-9805-44c9-b6cd-a5891fbc4659.jpeg",
        "owner_name": "MUSTAFA KEMAL ATATÜRK",
        "owner_avatar": "https://diplomacia.com.tr/uploads/avatars/b69c8981-b78e-475f-8fc1-4d72f7dbcb26.jpeg?v=1780444229864",
        "country_name": "Türkiye Cumhuriyeti",
        "country_flag": "https://diplomacia.com.tr/uploads/country-flags/6018c0c2-7c4d-4acd-a086-1b6a2c178361-1780971908111.png",
        "worker_count": "31"
      }
    ],
    "total": 3029,
    "page": 1,
    "pages": 606
  },
  "error": null
}